{"photos":{"page":1,"pages":1927,"perpage":100,"total":192661,"photo":[{"id":"51943708754","owner":"138171302@N03","secret":"e6c1d4f0f5","server":"65535","farm":66,"title":"abcd","ispublic":1,"isfriend":0,"isfamily":0},{"id":"51943690609","owner":"194030675@N08","secret":"2fbd869510","server":"65535","farm":66,"title":"","ispublic":1,"isfriend":0,"isfamily":0},{"id":"51943690054","owner":"191554194@N08","secret":"9698240d74","server":"65535","farm":66,"title":"Nh\u1eefng \u0111i\u1ec1u c\u1ea7n bi\u1ebft v\u1ec1 b\u0103ng t\u1ea3i trong m\u00f4i tr\u01b0\u1eddng kh\u00f3 kh\u0103n","ispublic":1,"isfriend":0,"isfamily":0},{"id":"51943438463","owner":"194632605@N05","secret":"18055af303","server":"65535","farm":66,"title":"Top FiveFrequently Asked Questions About The Bmw Downpipes","ispublic":1,"isfriend":0,"isfamily":0},{"id":"51942372417","owner":"51167579@N06","secret":"49d9c7a0e6","server":"65535","farm":66,"title":"Flora March 2022","ispublic":1,"isfriend":0,"isfamily":0},{"id":"51943428193","owner":"195139308@N06","secret":"7fdc83b3c2","server":"65535","farm":66,"title":"St. Bernard #481 (Special)","ispublic":1,"isfriend":0,"isfamily":0},{"id":"51943425038","owner":"58776072@N00","secret":"1ceedd17f1","server":"65535","farm":66,"title":"Fat Cat","ispublic":1,"isfriend":0,"isfamily":0},{"id":"51943342841","owner":"195139308@N06","secret":"02ffa9d9bd","server":"65535","farm":66,"title":"Ferret #482 (Special)","ispublic":1,"isfriend":0,"isfamily":0},{"id":"51943953375","owner":"195139308@N06","secret":"25d5611962","server":"65535","farm":66,"title":"Cat Shorthair #483 (Special)","ispublic":1,"isfriend":0,"isfamily":0},{"id":"51943658724","owner":"195139308@N06","secret":"754ebb8d3c","server":"65535","farm":66,"title":"Dragonfly #503 (Special)","ispublic":1,"isfriend":0,"isfamily":0},{"id":"51943325886","owner":"195041693@N05","secret":"9e7db1a3cf","server":"65535","farm":66,"title":"Makeup Brushes 19Pcs Bastet Cat Makeup Brush Set Premium Synthetic Kabuki Foundation Blending Face Powder Blush Concealers Eyeshadow Fan Make Up Brushes Set, Ancient Egyptian Series","ispublic":1,"isfriend":0,"isfamily":0},{"id":"51943406133","owner":"195217158@N07","secret":"62c9cf1a68","server":"65535","farm":66,"title":"Image_c4ad.muon-theo-nghe-toc-can-phai-lam-gi.","ispublic":1,"isfriend":0,"isfamily":0},{"id":"51943936530","owner":"192969137@N03","secret":"a1e872014c","server":"65535","farm":66,"title":"hpt_orb_cats_wm","ispublic":1,"isfriend":0,"isfamily":0},{"id":"51942336742","owner":"195217158@N07","secret":"26f7e75f12","server":"65535","farm":66,"title":"Image_df94.lam-the-nao-de-theo-nghe-toc.","ispublic":1,"isfriend":0,"isfamily":0},{"id":"51943319446","owner":"194814539@N05","secret":"d4e8c138f7","server":"65535","farm":66,"title":"Little tiger","ispublic":1,"isfriend":0,"isfamily":0},{"id":"51942331917","owner":"189155915@N06","secret":"cde405a712","server":"65535","farm":66,"title":"Ragdoll cat","ispublic":1,"isfriend":0,"isfamily":0},{"id":"51943398353","owner":"189155915@N06","secret":"70b75c9923","server":"65535","farm":66,"title":"Ragdoll cat","ispublic":1,"isfriend":0,"isfamily":0},{"id":"51943393173","owner":"195139308@N06","secret":"8be5a7a1e1","server":"65535","farm":66,"title":"Hermit Crab #62 (2006)","ispublic":1,"isfriend":0,"isfamily":0},{"id":"51942324212","owner":"195139308@N06","secret":"9ec5c6883a","server":"65535","farm":66,"title":"Pig #87 (2006)","ispublic":1,"isfriend":0,"isfamily":0},{"id":"51943301226","owner":"28912994@N04","secret":"b931a27e13","server":"65535","farm":66,"title":"KEN Mar. 17, 2022","ispublic":1,"isfriend":0,"isfamily":0},{"id":"51943622784","owner":"195110779@N04","secret":"784b5ef7a5","server":"65535","farm":66,"title":"IMG_2432.jpg","ispublic":1,"isfriend":0,"isfamily":0},{"id":"51943911640","owner":"194877316@N08","secret":"44a94f35e8","server":"65535","farm":66,"title":"Introverted But Willing To Discuss Cats svg png dxf eps","ispublic":1,"isfriend":0,"isfamily":0},{"id":"51943296726","owner":"192779884@N06","secret":"e3c95e0f88","server":"65535","farm":66,"title":"We're looking good and feline good. #cats #catsofinstagram #cutecats #catstagram #chartreux #catlover #instacat #instapet #CatLovesBest","ispublic":1,"isfriend":0,"isfamily":0},{"id":"51943905200","owner":"124539822@N08","secret":"78d8b159fb","server":"65535","farm":66,"title":"Lizzie in the sun","ispublic":1,"isfriend":0,"isfamily":0},{"id":"51943373338","owner":"124539822@N08","secret":"d7d3bde5c5","server":"65535","farm":66,"title":"Lizzie in the sun","ispublic":1,"isfriend":0,"isfamily":0},{"id":"51943291166","owner":"124539822@N08","secret":"5c633b3cbe","server":"65535","farm":66,"title":"Lizzie in her nest","ispublic":1,"isfriend":0,"isfamily":0},{"id":"51943372593","owner":"124539822@N08","secret":"7a7af11241","server":"65535","farm":66,"title":"Lizzie in her nest","ispublic":1,"isfriend":0,"isfamily":0},{"id":"51943362923","owner":"123594177@N08","secret":"7f771b326a","server":"65535","farm":66,"title":"14th March 2022. The view towards Jodrell Bank from Pym Chair Rocks, near Nab End, Cheshire","ispublic":1,"isfriend":0,"isfamily":0},{"id":"51942295412","owner":"123594177@N08","secret":"9564858de6","server":"65535","farm":66,"title":"14th March 2022. The Street Roman Road in Derbyshire, from Pym Chair Rocks, near Nab End, Cheshire","ispublic":1,"isfriend":0,"isfamily":0},{"id":"51943600589","owner":"14384441@N00","secret":"d35ecb80b4","server":"65535","farm":66,"title":"snow and snow coming\u2026","ispublic":1,"isfriend":0,"isfamily":0},{"id":"51942288597","owner":"192760658@N02","secret":"2eea551c7d","server":"65535","farm":66,"title":"Hmm...let me think about it. Yes, I will kill you. #cats #catsofinstagram #cutecats #catstagram #bengalcat #catlover #instacat #instapet #CatLovesBest","ispublic":1,"isfriend":0,"isfamily":0},{"id":"51942279472","owner":"192751178@N07","secret":"4fc3de4e58","server":"65535","farm":66,"title":"We've got cattitude! #cats #catsofinstagram #cutecats #catstagram #ocicat #catlover #instacat #instapet #CatLovesBest","ispublic":1,"isfriend":0,"isfamily":0},{"id":"51943260416","owner":"190390736@N07","secret":"5342b52e9f","server":"65535","farm":66,"title":"Genshin Impact: C\u1ed1t truy\u1ec7n V\u1ef1c \u0110\u00e1 S\u00e2u s\u1eafp t\u1edbi s\u1ebd h\u00e9 l\u1ed9 th\u00eam v\u1ec1 \u0110\u1ea3o Thi\u00ean Kh\u00f4ng v\u00e0 tr\u1eadn chi\u1ebfn Ma Th\u1ea7n","ispublic":1,"isfriend":0,"isfamily":0},{"id":"51942274747","owner":"30052084@N03","secret":"016f5023b8","server":"65535","farm":66,"title":"Noble","ispublic":1,"isfriend":0,"isfamily":0},{"id":"51942273592","owner":"192177833@N07","secret":"18646c9ef2","server":"65535","farm":66,"title":"Move, you're in my selfie, hooman! #cats #catsofinstagram #cutecats #catstagram #mainecoon #catlover #instacat #instapet #CatLovesBest","ispublic":1,"isfriend":0,"isfamily":0},{"id":"51942268852","owner":"194752436@N03","secret":"c51afae372","server":"65535","farm":66,"title":"Attention lost","ispublic":1,"isfriend":0,"isfamily":0},{"id":"51943857845","owner":"98216376@N00","secret":"72c403e4d9","server":"65535","farm":66,"title":"Donderdag 17 maart 2022","ispublic":1,"isfriend":0,"isfamily":0},{"id":"51943245171","owner":"57862012@N06","secret":"1b0cdc7d45","server":"65535","farm":66,"title":"Onmonmon Talvi 02","ispublic":1,"isfriend":0,"isfamily":0},{"id":"51943857780","owner":"57862012@N06","secret":"ef3494ef07","server":"65535","farm":66,"title":"Omnomnom Talvi","ispublic":1,"isfriend":0,"isfamily":0},{"id":"51943326953","owner":"57862012@N06","secret":"398a454652","server":"65535","farm":66,"title":"Head-tilt portrait of Talvi","ispublic":1,"isfriend":0,"isfamily":0},{"id":"51943857610","owner":"57862012@N06","secret":"11549a4560","server":"65535","farm":66,"title":"Cuddle time with whippet","ispublic":1,"isfriend":0,"isfamily":0},{"id":"51943326748","owner":"57862012@N06","secret":"6caf7ec43a","server":"65535","farm":66,"title":"Schlacksig whippet","ispublic":1,"isfriend":0,"isfamily":0},{"id":"51943324403","owner":"55221361@N02","secret":"772938f51d","server":"65535","farm":66,"title":"Pussy cat","ispublic":1,"isfriend":0,"isfamily":0},{"id":"51943853310","owner":"96657002@N06","secret":"12be3d9e92","server":"65535","farm":66,"title":"Leopard","ispublic":1,"isfriend":0,"isfamily":0},{"id":"51943850940","owner":"77988327@N00","secret":"ba52dfd409","server":"65535","farm":66,"title":"Happy St Patricks day!","ispublic":1,"isfriend":0,"isfamily":0},{"id":"51943214021","owner":"144670977@N05","secret":"94c664f1f7","server":"65535","farm":66,"title":"gazing sun-bather","ispublic":1,"isfriend":0,"isfamily":0},{"id":"51943305178","owner":"153237179@N02","secret":"a8b82d83c4","server":"65535","farm":66,"title":"LOST grey cat #Abbeydale since March 12 Contact 587-225-6627 if sighted\/found Pls RT, watch, share, help to locate NINO NOTE Kitty is on a special diet. Hi guys my grandma\u2019s cat went missing Saturday night (march 12) in the abbeydale community and has bee","ispublic":1,"isfriend":0,"isfamily":0},{"id":"51943544164","owner":"153237179@N02","secret":"f96a268577","server":"65535","farm":66,"title":"FOUND small calico cat #Copperfield Pls RT, share for owner awareness. If claiming MUST provide proof of ownership and photo ID *************Additional Photo In Comments******************* Found in Copperfield this afternoon, small calico kitten, very fri","ispublic":1,"isfriend":0,"isfamily":0},{"id":"51943305023","owner":"153237179@N02","secret":"2a9f75119a","server":"65535","farm":66,"title":"LOST grey cat #Abbeydale since March 12 Contact 587-225-6627 if sighted\/found Pls RT, watch, share, help to locate NINO NOTE Kitty is on a special diet. Missing Cat in Abbeydale 2022-03-17T04:53:02.000Z by original fb post-click here https:\/\/bit.ly\/3wgjFm","ispublic":1,"isfriend":0,"isfamily":0},{"id":"51943836150","owner":"153237179@N02","secret":"8cfc64d960","server":"65535","farm":66,"title":"FOUND grey cat #HuntingtonHills Pls RT, share for owner awareness. If claiming MUST provide proof of ownership and photo ID We found this little lady wandering the back alley and she\u2019s definitely an indoor cat. She didn\u2019t move when my car was driving towa","ispublic":1,"isfriend":0,"isfamily":0},{"id":"51943304808","owner":"153237179@N02","secret":"7bec7b5ff5","server":"65535","farm":66,"title":"LOST grey w\/black stripes tabby and white cat #Sunalta Pls RT, watch, share, help to locate MISSY Missy, just went missing at 7 pm sunalta 11 ave 19st. Usually not away from home for 3 minutes. Not wearing her collar and I think she may have been kidnappe","ispublic":1,"isfriend":0,"isfamily":0},{"id":"51942238072","owner":"153237179@N02","secret":"b0f00f4a83","server":"65535","farm":66,"title":"LOST orange cat in #Sundance. Contact Zacara 587-839-2069. Pls rt watch share help to find Bandersnatch! Cat orange tabby missing in Sundance Cat orange tabby missing in Sundance 2022-03-16T23:02:04.000Z by original fb visitor post-click here https:\/\/bit.","ispublic":1,"isfriend":0,"isfamily":0},{"id":"51943543599","owner":"153237179@N02","secret":"712867e65a","server":"65535","farm":66,"title":"LOST dsh tabby cat in #ogden since March 16. Msg Alysha if sighted\/found, Pls rt, share, watch, help to find BOYIO! Missing kitten in the Ogden area around 25th street, only one years old answers to the name boyio he took off last night when the delivery","ispublic":1,"isfriend":0,"isfamily":0},{"id":"51943303178","owner":"195192566@N07","secret":"e0b4553323","server":"65535","farm":66,"title":"IMG_0830","ispublic":1,"isfriend":0,"isfamily":0},{"id":"51943302298","owner":"192754352@N05","secret":"f1febcb5d4","server":"65535","farm":66,"title":"Help, I\u2019ve been catnapped! #cats #catsofinstagram #cutecats #catstagram #orientalshorthair #catlover #instacat #instapet #CatLovesBest","ispublic":1,"isfriend":0,"isfamily":0},{"id":"51943507124","owner":"11299883@N08","secret":"cedaa433d0","server":"65535","farm":66,"title":"Helvella leucomelaena, Parc del Foix","ispublic":1,"isfriend":0,"isfamily":0},{"id":"51943296018","owner":"194436223@N04","secret":"6fbd6c1423","server":"65535","farm":66,"title":"Introverted But Willing To Discuss Cats","ispublic":1,"isfriend":0,"isfamily":0},{"id":"51942653689","owner":"195050594@N06","secret":"484b71034c","server":"65535","farm":66,"title":"QUICK AND EASY WAY TO STRETCH 4C HAIR! \ud83d\ude2f\ud83d\ude3b\ud83d\ude3b #4chair #4chaircare #4chairstyles","ispublic":1,"isfriend":0,"isfamily":0},{"id":"51943260808","owner":"30140011@N04","secret":"60dbe3c502","server":"0","farm":0,"title":"TrailCam 16\/3\/22","ispublic":1,"isfriend":0,"isfamily":0},{"id":"51943166661","owner":"153237179@N02","secret":"ed3374879e","server":"65535","farm":66,"title":"LOST grey cat #Abbeydale since March 12 Contact 587-225-6627 if sighted\/found Pls RT, watch, share, help to locate NINO NOTE Kitty is on a special diet. Hi guys my grandma\u2019s cat went missing Saturday night (march 12) in the abbeydale community and has bee","ispublic":1,"isfriend":0,"isfamily":0},{"id":"51943486844","owner":"194545230@N04","secret":"012720e7e2","server":"65535","farm":66,"title":"Cats on the roof","ispublic":1,"isfriend":0,"isfamily":0},{"id":"51943162486","owner":"192139821@N02","secret":"edd108e1ab","server":"65535","farm":66,"title":"New Britain Rock Cats","ispublic":1,"isfriend":0,"isfamily":0},{"id":"51943770645","owner":"70986564@N00","secret":"e53d339efb","server":"65535","farm":66,"title":"Norwegian forest cat","ispublic":1,"isfriend":0,"isfamily":0},{"id":"51943236123","owner":"194375524@N08","secret":"fc988e3529","server":"65535","farm":66,"title":"#Virginia cat breeders","ispublic":1,"isfriend":0,"isfamily":0},{"id":"51943472139","owner":"148179219@N03","secret":"65852e026e","server":"65535","farm":66,"title":"poedie 2 (10)","ispublic":1,"isfriend":0,"isfamily":0},{"id":"51943763240","owner":"194375524@N08","secret":"ba8ce1599b","server":"65535","farm":66,"title":"Virginia cat breeders","ispublic":1,"isfriend":0,"isfamily":0},{"id":"51943754205","owner":"39515458@N02","secret":"9c3a2e133b","server":"65535","farm":66,"title":"cats-crop","ispublic":1,"isfriend":0,"isfamily":0},{"id":"51943754210","owner":"39515458@N02","secret":"5e45ac1122","server":"65535","farm":66,"title":"cats","ispublic":1,"isfriend":0,"isfamily":0},{"id":"51943440089","owner":"192139821@N02","secret":"d0a63c79f1","server":"65535","farm":66,"title":"New Britain Rock Cats","ispublic":1,"isfriend":0,"isfamily":0},{"id":"51943405964","owner":"191843995@N03","secret":"b04ecc0943","server":"65535","farm":66,"title":"cat-crimes-player-tokens-1024x743","ispublic":1,"isfriend":0,"isfamily":0},{"id":"51943164538","owner":"195217160@N02","secret":"ef5d6b0044","server":"65535","farm":66,"title":"Shipping Your Car","ispublic":1,"isfriend":0,"isfamily":0},{"id":"51943059126","owner":"195221337@N07","secret":"b30565e654","server":"65535","farm":66,"title":"CAT COLLER- Premium Quality Amazon Product Listing Infographic Images","ispublic":1,"isfriend":0,"isfamily":0},{"id":"51323297548","owner":"143455489@N03","secret":"e3f89b7c55","server":"65535","farm":66,"title":"A safe tiger is a sleeping one. Large male Tiger napping in the shade of banana leaf","ispublic":1,"isfriend":0,"isfamily":0},{"id":"51943070668","owner":"192110245@N04","secret":"14079abd41","server":"65535","farm":66,"title":"CONEY","ispublic":1,"isfriend":0,"isfamily":0},{"id":"51942988586","owner":"192110245@N04","secret":"af5e9634d6","server":"65535","farm":66,"title":"Coney headbonking me","ispublic":1,"isfriend":0,"isfamily":0},{"id":"51942001817","owner":"192110245@N04","secret":"92a3d5fa51","server":"65535","farm":66,"title":"SHADOW","ispublic":1,"isfriend":0,"isfamily":0},{"id":"51943657015","owner":"185962930@N04","secret":"d284f8cbdb","server":"65535","farm":66,"title":"Capture","ispublic":1,"isfriend":0,"isfamily":0},{"id":"51943023816","owner":"138837019@N04","secret":"da83b61cb1","server":"65535","farm":66,"title":"Desert rose","ispublic":1,"isfriend":0,"isfamily":0},{"id":"51942044192","owner":"39600814@N03","secret":"c970c327a3","server":"65535","farm":66,"title":"A cat","ispublic":1,"isfriend":0,"isfamily":0},{"id":"51942987913","owner":"8767978@N04","secret":"742c47ca07","server":"65535","farm":66,"title":"Staircase chill","ispublic":1,"isfriend":0,"isfamily":0},{"id":"51941917662","owner":"8767978@N04","secret":"c26729be42","server":"65535","farm":66,"title":"Doja Cat","ispublic":1,"isfriend":0,"isfamily":0},{"id":"51943023056","owner":"195252623@N08","secret":"fdcea754b6","server":"65535","farm":66,"title":"The Backyard Animal Show (5) IG POST","ispublic":1,"isfriend":0,"isfamily":0},{"id":"51943091783","owner":"45148911@N06","secret":"dda2491d3f","server":"65535","farm":66,"title":"A1__DSC8497_C1","ispublic":1,"isfriend":0,"isfamily":0},{"id":"51943329739","owner":"45148911@N06","secret":"b442ee53e1","server":"65535","farm":66,"title":"A1__DSC8498_C1","ispublic":1,"isfriend":0,"isfamily":0},{"id":"51942022362","owner":"45148911@N06","secret":"62ea0a3b38","server":"65535","farm":66,"title":"A1__DSC8500_C1","ispublic":1,"isfriend":0,"isfamily":0},{"id":"51943091303","owner":"45148911@N06","secret":"23c19e5579","server":"65535","farm":66,"title":"A1__DSC8502_C1","ispublic":1,"isfriend":0,"isfamily":0},{"id":"51942022032","owner":"45148911@N06","secret":"18d35200a2","server":"65535","farm":66,"title":"A1__DSC8504_C1","ispublic":1,"isfriend":0,"isfamily":0},{"id":"51943329164","owner":"45148911@N06","secret":"b0a9b63e90","server":"65535","farm":66,"title":"A1__DSC8506_C1","ispublic":1,"isfriend":0,"isfamily":0},{"id":"51942021547","owner":"45148911@N06","secret":"31e115751e","server":"65535","farm":66,"title":"A1__DSC8510_C1","ispublic":1,"isfriend":0,"isfamily":0},{"id":"51943008576","owner":"45148911@N06","secret":"964e4038f7","server":"65535","farm":66,"title":"A1__DSC8508_C1","ispublic":1,"isfriend":0,"isfamily":0},{"id":"51943328709","owner":"45148911@N06","secret":"3a154f1069","server":"65535","farm":66,"title":"A1__DSC8509_C1","ispublic":1,"isfriend":0,"isfamily":0},{"id":"51942021262","owner":"45148911@N06","secret":"a25cdb6280","server":"65535","farm":66,"title":"A1__DSC8511_C1","ispublic":1,"isfriend":0,"isfamily":0},{"id":"51942021182","owner":"45148911@N06","secret":"3679dc98b5","server":"65535","farm":66,"title":"A1__DSC8512_C1","ispublic":1,"isfriend":0,"isfamily":0},{"id":"51943090163","owner":"45148911@N06","secret":"a695ef20dc","server":"65535","farm":66,"title":"A1__DSC8513_C1","ispublic":1,"isfriend":0,"isfamily":0},{"id":"51943090078","owner":"45148911@N06","secret":"eee608134e","server":"65535","farm":66,"title":"A1__DSC8514_C1","ispublic":1,"isfriend":0,"isfamily":0},{"id":"51942020822","owner":"45148911@N06","secret":"ff07480b9e","server":"65535","farm":66,"title":"A1__DSC8515_C1","ispublic":1,"isfriend":0,"isfamily":0},{"id":"51942020772","owner":"45148911@N06","secret":"03db575fce","server":"65535","farm":66,"title":"A1__DSC8516_C1","ispublic":1,"isfriend":0,"isfamily":0},{"id":"51943328094","owner":"45148911@N06","secret":"b6307048cc","server":"65535","farm":66,"title":"A1__DSC8519_C1","ispublic":1,"isfriend":0,"isfamily":0},{"id":"51943169903","owner":"193909677@N05","secret":"751b14879a","server":"65535","farm":66,"title":"B\u1ea3ng Gi\u00e1 T\u00f4n Nh\u1ef1a 11 S\u00f3ng Vu\u00f4ng B\u00ecnh \u0110\u1ecbnh","ispublic":1,"isfriend":0,"isfamily":0}]},"stat":"ok"}

